…
# がんか非癌かのメタデータにする
metadata_sample_type <- metadata_subset %>% 
    mutate(sample_type = if_else(source == "TCGA_CRC", "tumor", "normal")) %>%
    select(-source)

# データの確認
print(metadata_sample_type)
print(table(metadata_sample_type$sample_type))
{{< /highlight >}}
{{% /details %}}

{{< highlight r >}}
# A tibble: 100 × 2
   case_id           sample_type
   <chr>             <chr>      
 1 TCGA-D5-5540      tumor      
 2 TCGA-EI-6509      tumor      
 3 TCGA-A6-6137      tumor      
 4 TCGA-QG-A5Z2      tumor      
 5 TCGA-AA-3489      tumor      
 6 HCM-CSHL-0160-C18 tumor      
 7 TCGA-AD-A5EK      tumor      
 8 TCGA-AA-3867      tumor      
 9 TCGA-AA-3975      tumor      
10 05CO007           tumor      
# ℹ 90 more rows
…
