…
{{% details title="tibbleに変換" %}}
{{< highlight R >}}
# tibbleに変換
gene_set_tibble <- row_annotation_data |>
    rownames_to_column(var = "gene_name") |>
    as_tibble()

# データの中身を確認
print(gene_set_tibble)
{{< /highlight >}}
{{% /details %}}

{{< highlight R >}}
# A tibble: 56 × 2
   gene_name set_name  
   <chr>     <chr>     
 1 APC       CRC driver
 2 KRAS      CRC driver
 3 PIK3CA    CRC driver
 4 FBXW7     CRC driver
 5 SMAD4     CRC driver
 6 TCF7L2    CRC driver
 7 NRAS      CRC driver
 8 BRAF      CRC driver
 9 TP53      CRC driver
10 CTNNB1    CRC driver
# ℹ 46 more rows
…
